sim/fp_only.vcd
$date
	Thu Apr  2 21:46:30 2026
$end
$version
	Icarus Verilog
$end
$timescale
	1ps
$end
$scope module tb_fp_only $end
$var parameter 5 ! OP_ADDF $end
$var parameter 5 " OP_DIVF $end
$var parameter 5 # OP_MULF $end
$var parameter 5 $ OP_SUBF $end
$var reg 1 % clk $end
$var reg 1 & reset $end
$var integer 32 ' fails [31:0] $end
$var integer 32 ( i [31:0] $end
$scope function enc_rrr $end
$var reg 5 ) opcode [4:0] $end
$var reg 5 * rd [4:0] $end
$var reg 5 + rs [4:0] $end
$var reg 5 , rt [4:0] $end
$upscope $end
$scope module uut $end
$var wire 1 % clk $end
$var wire 1 & reset $end
$var wire 64 - sp_data [63:0] $end
$var wire 5 . rt_idx [4:0] $end
$var wire 64 / rt_data [63:0] $end
$var wire 5 0 rs_idx [4:0] $end
$var wire 64 1 rs_data [63:0] $end
$var wire 5 2 rd_idx [4:0] $end
$var wire 64 3 rd_data [63:0] $end
$var wire 64 4 pc_plus_4 [63:0] $end
$var wire 64 5 pc [63:0] $end
$var wire 5 6 opcode [4:0] $end
$var wire 64 7 lit_zext [63:0] $end
$var wire 64 8 lit_sext [63:0] $end
$var wire 12 9 lit12 [11:0] $end
$var wire 32 : instruction [31:0] $end
$var wire 64 ; data_read_data [63:0] $end
$var wire 64 < alu_result [63:0] $end
$var wire 1 = alu_a_is_zero $end
$var wire 1 > alu_a_gt_b_signed $end
$var parameter 6 ? ALU_ADD $end
$var parameter 6 @ ALU_AND $end
$var parameter 6 A ALU_DIV $end
$var parameter 6 B ALU_FADD $end
$var parameter 6 C ALU_FDIV $end
$var parameter 6 D ALU_FMUL $end
$var parameter 6 E ALU_FSUB $end
$var parameter 6 F ALU_MUL $end
$var parameter 6 G ALU_NOT $end
$var parameter 6 H ALU_OR $end
$var parameter 6 I ALU_PASS_A $end
$var parameter 6 J ALU_PASS_B $end
$var parameter 6 K ALU_SHL $end
$var parameter 6 L ALU_SHR $end
$var parameter 6 M ALU_SUB $end
$var parameter 6 N ALU_XOR $end
$var parameter 64 O MEM_SIZE $end
$var parameter 5 P OP_ADD $end
$var parameter 5 Q OP_ADDF $end
$var parameter 5 R OP_ADDI $end
$var parameter 5 S OP_AND $end
$var parameter 5 T OP_BR $end
$var parameter 5 U OP_BRGT $end
$var parameter 5 V OP_BRNZ $end
$var parameter 5 W OP_BRR_LIT $end
$var parameter 5 X OP_BRR_REG $end
$var parameter 5 Y OP_CALL $end
$var parameter 5 Z OP_DIV $end
$var parameter 5 [ OP_DIVF $end
$var parameter 5 \ OP_MOV_LIT $end
$var parameter 5 ] OP_MOV_LOAD $end
$var parameter 5 ^ OP_MOV_REG $end
$var parameter 5 _ OP_MOV_STORE $end
$var parameter 5 ` OP_MUL $end
$var parameter 5 a OP_MULF $end
$var parameter 5 b OP_NOT $end
$var parameter 5 c OP_OR $end
$var parameter 5 d OP_PRIV $end
$var parameter 5 e OP_RETURN $end
$var parameter 5 f OP_SHFTL $end
$var parameter 5 g OP_SHFTLI $end
$var parameter 5 h OP_SHFTR $end
$var parameter 5 i OP_SHFTRI $end
$var parameter 5 j OP_SUB $end
$var parameter 5 k OP_SUBF $end
$var parameter 5 l OP_SUBI $end
$var parameter 5 m OP_XOR $end
$var reg 64 n alu_a [63:0] $end
$var reg 64 o alu_b [63:0] $end
$var reg 6 p alu_op [5:0] $end
$var reg 64 q data_addr [63:0] $end
$var reg 64 r data_write_data [63:0] $end
$var reg 1 s data_write_en $end
$var reg 1 t pc_redirect $end
$var reg 64 u pc_redirect_target [63:0] $end
$var reg 5 v rf_write_addr [4:0] $end
$var reg 64 w rf_write_data [63:0] $end
$var reg 1 x rf_write_en $end
$scope module alu_fpu $end
$var wire 64 y a [63:0] $end
$var wire 64 z b [63:0] $end
$var wire 6 { op [5:0] $end
$var wire 1 = a_is_zero $end
$var wire 1 > a_gt_b_signed $end
$var parameter 6 | ALU_ADD $end
$var parameter 6 } ALU_AND $end
$var parameter 6 ~ ALU_DIV $end
$var parameter 6 !" ALU_FADD $end
$var parameter 6 "" ALU_FDIV $end
$var parameter 6 #" ALU_FMUL $end
$var parameter 6 $" ALU_FSUB $end
$var parameter 6 %" ALU_MUL $end
$var parameter 6 &" ALU_NOT $end
$var parameter 6 '" ALU_OR $end
$var parameter 6 (" ALU_PASS_A $end
$var parameter 6 )" ALU_PASS_B $end
$var parameter 6 *" ALU_SHL $end
$var parameter 6 +" ALU_SHR $end
$var parameter 6 ," ALU_SUB $end
$var parameter 6 -" ALU_XOR $end
$var parameter 64 ." QUIET_NAN $end
$var reg 64 /" result [63:0] $end
$scope function fp_addsub64 $end
$upscope $end
$scope function fp_div64 $end
$upscope $end
$scope function fp_mul64 $end
$upscope $end
$scope function is_inf64 $end
$upscope $end
$scope function is_nan64 $end
$upscope $end
$scope function is_zero64 $end
$upscope $end
$scope function pack_fp $end
$upscope $end
$scope function pack_round64 $end
$upscope $end
$scope function shr_sticky56 $end
$upscope $end
$upscope $end
$scope module decoder $end
$var wire 5 0" rt_idx [4:0] $end
$var wire 5 1" rs_idx [4:0] $end
$var wire 5 2" rd_idx [4:0] $end
$var wire 5 3" opcode [4:0] $end
$var wire 64 4" lit_zext [63:0] $end
$var wire 64 5" lit_sext [63:0] $end
$var wire 12 6" lit12 [11:0] $end
$var wire 32 7" instruction [31:0] $end
$upscope $end
$scope module fetch $end
$var wire 1 % clk $end
$var wire 1 t redirect $end
$var wire 64 8" redirect_target [63:0] $end
$var wire 1 & reset $end
$var reg 64 9" pc [63:0] $end
$upscope $end
$scope module memory $end
$var wire 1 % clk $end
$var wire 64 :" data_addr [63:0] $end
$var wire 64 ;" data_write_data [63:0] $end
$var wire 1 s data_write_en $end
$var wire 64 <" inst_addr [63:0] $end
$var wire 32 =" inst_word [31:0] $end
$var wire 32 >" inst_idx [31:0] $end
$var wire 64 ?" data_read_data [63:0] $end
$var wire 32 @" data_idx [31:0] $end
$var parameter 64 A" MEM_SIZE $end
$upscope $end
$scope module reg_file $end
$var wire 1 % clk $end
$var wire 5 B" read_addr_a [4:0] $end
$var wire 5 C" read_addr_b [4:0] $end
$var wire 5 D" read_addr_c [4:0] $end
$var wire 64 E" read_data_a [63:0] $end
$var wire 64 F" read_data_b [63:0] $end
$var wire 64 G" read_data_c [63:0] $end
$var wire 1 & reset $end
$var wire 64 H" sp_data [63:0] $end
$var wire 5 I" write_addr [4:0] $end
$var wire 64 J" write_data [63:0] $end
$var wire 1 x write_en $end
$var parameter 64 K" MEM_SIZE $end
$var integer 32 L" i [31:0] $end
$upscope $end
$upscope $end
$scope task clear_prog_region $end
$upscope $end
$scope task do_reset $end
$upscope $end
$scope task expect64 $end
$var reg 64 M" expected [63:0] $end
$var reg 64 N" got [63:0] $end
$var reg 256 O" label [255:0] $end
$upscope $end
$scope task expect_nan $end
$var reg 64 P" got [63:0] $end
$var reg 256 Q" label [255:0] $end
$upscope $end
$scope task write_inst $end
$var reg 64 R" addr [63:0] $end
$var reg 32 S" inst [31:0] $end
$upscope $end
$upscope $end
$enddefinitions $end
$comment Show the parameter values. $end
$dumpall
b10000000000000000000 K"
b10000000000000000000 A"
b111111111111000000000000000000000000000000000000000000000000000 ."
b100 -"
b1001 ,"
b110 +"
b111 *"
b1 )"
b0 ("
b11 '"
b101 &"
b1010 %"
b1101 $"
b1110 #"
b1111 ""
b1100 !"
b1011 ~
b10 }
b1000 |
b10 m
b11011 l
b10101 k
b11010 j
b101 i
b100 h
b111 g
b110 f
b1101 e
b1111 d
b1 c
b11 b
b10110 a
b11100 `
b10011 _
b10001 ^
b10000 ]
b10010 \
b10111 [
b11101 Z
b1100 Y
b1001 X
b1010 W
b1011 V
b1110 U
b1000 T
b0 S
b11001 R
b10100 Q
b11000 P
b10000000000000000000 O
b100 N
b1001 M
b110 L
b111 K
b1 J
b0 I
b11 H
b101 G
b1010 F
b1101 E
b1110 D
b1111 C
b1100 B
b1011 A
b10 @
b1000 ?
b10101 $
b10110 #
b10111 "
b10100 !
$end
#0
$dumpvars
b10100000010001000011000000000000 S"
b10000000000000 R"
bx Q"
bx P"
bx O"
bx N"
bx M"
bx L"
b0 J"
bx I"
bx H"
bx G"
bx F"
bx E"
bx D"
bx C"
bx B"
b0 @"
bx ?"
bx >"
bx ="
bx <"
b0 ;"
b0 :"
bx 9"
b0 8"
bx 7"
bx 6"
bx 5"
b0xxxxxxxxxxxx 4"
bx 3"
bx 2"
bx 1"
bx 0"
b0 /"
b0 {
b0 z
b0 y
0x
b0 w
bx v
b0 u
0t
0s
b0 r
b0 q
b0 p
b0 o
b0 n
0>
1=
b0 <
bx ;
bx :
bx 9
bx 8
b0xxxxxxxxxxxx 7
bx 6
bx 5
bx 4
bx 3
bx 2
bx 1
bx 0
bx /
bx .
bx -
b11 ,
b10 +
b1 *
b10100 )
b10000001000000 (
b0 '
1&
0%
$end
#5000
1x
b1100 p
b1100 {
b1 v
b1 I"
b0 8
b0 5"
b0 7
b0 4"
b0 9
b0 6"
b0 /
b0 G"
b11 .
b11 0"
b11 D"
b0 1
b0 F"
b10 0
b10 1"
b10 C"
b0 3
b0 E"
b1 2
b1 2"
b1 B"
b10100 6
b10100 3"
b10100000010001000011000000000000 :
b10100000010001000011000000000000 7"
b10100000010001000011000000000000 ="
b10000000000000 >"
b10000000000100 4
b10000000000000 5
b10000000000000 9"
b10000000000000 <"
b10000000000000000000 -
b10000000000000000000 H"
b11111 L"
1%
#10000
0%
#15000
b11111 L"
1%
#16000
0&
#17000
b100000000001000000000000000000000000000000000000000000000000000 w
b100000000001000000000000000000000000000000000000000000000000000 J"
b100000000001000000000000000000000000000000000000000000000000000 <
b100000000001000000000000000000000000000000000000000000000000000 /"
b11111111111000000000000000000000000000000000000000000000000000 o
b11111111111000000000000000000000000000000000000000000000000000 z
0=
0>
b11111111111000000000000000000000000000000000000000000000000000 n
b11111111111000000000000000000000000000000000000000000000000000 y
b1100 p
b1100 {
1x
b11111111111000000000000000000000000000000000000000000000000000 /
b11111111111000000000000000000000000000000000000000000000000000 G"
b11111111111000000000000000000000000000000000000000000000000000 1
b11111111111000000000000000000000000000000000000000000000000000 F"
#20000
0%
#25000
b0 <
b0 /"
b0 v
b0 I"
b0 /
b0 G"
b0 .
b0 0"
b0 D"
b0 1
b0 F"
b0 0
b0 1"
b0 C"
b0 2
b0 2"
b0 B"
b0 6
b0 3"
b0 :
b0 7"
b0 ="
b10000000000100 >"
0>
b0 o
b0 z
1=
b0 n
b0 y
b10 p
b10 {
b0 w
b0 J"
1x
b10000000001000 4
b10000000000100 5
b10000000000100 9"
b10000000000100 <"
b0 3
b0 E"
1%
#26000
1&
b10101001000010100110000000000000 S"
b10101 )
b100 *
b101 +
b110 ,
b10000001000000 (
b100000000001000000000000000000000000000000000000000000000000000 M"
b100000000001000000000000000000000000000000000000000000000000000 N"
b1000001010001000100010001000110001000000110001001100001011100110110100101100011 O"
#30000
0%
#35000
b100 v
b100 I"
b110 .
b110 0"
b110 D"
b101 0
b101 1"
b101 C"
b100 2
b100 2"
b100 B"
b10101 6
b10101 3"
b10101001000010100110000000000000 :
b10101001000010100110000000000000 7"
b10101001000010100110000000000000 ="
b10000000000000 >"
b1101 p
b1101 {
1x
b10000000000100 4
b10000000000000 5
b10000000000000 9"
b10000000000000 <"
b11111 L"
1%
#40000
0%
#45000
b11111 L"
1%
#46000
0&
#47000
b100000000001010000000000000000000000000000000000000000000000000 w
b100000000001010000000000000000000000000000000000000000000000000 J"
b100000000001010000000000000000000000000000000000000000000000000 <
b100000000001010000000000000000000000000000000000000000000000000 /"
b100000000000010000000000000000000000000000000000000000000000000 o
b100000000000010000000000000000000000000000000000000000000000000 z
0=
1>
b100000000010110000000000000000000000000000000000000000000000000 n
b100000000010110000000000000000000000000000000000000000000000000 y
b1101 p
b1101 {
1x
b100000000000010000000000000000000000000000000000000000000000000 /
b100000000000010000000000000000000000000000000000000000000000000 G"
b100000000010110000000000000000000000000000000000000000000000000 1
b100000000010110000000000000000000000000000000000000000000000000 F"
#50000
0%
#55000
b0 <
b0 /"
b0 v
b0 I"
b0 /
b0 G"
b0 .
b0 0"
b0 D"
b0 1
b0 F"
b0 0
b0 1"
b0 C"
b0 2
b0 2"
b0 B"
b0 6
b0 3"
b0 :
b0 7"
b0 ="
b10000000000100 >"
b0 o
b0 z
1=
0>
b0 n
b0 y
b10 p
b10 {
b0 w
b0 J"
1x
b0 3
b0 E"
b10000000001000 4
b10000000000100 5
b10000000000100 9"
b10000000000100 <"
1%
#56000
1&
b10110001110100001001000000000000 S"
b10110 )
b111 *
b1000 +
b1001 ,
b10000001000000 (
b100000000001010000000000000000000000000000000000000000000000000 M"
b100000000001010000000000000000000000000000000000000000000000000 N"
b1010011010101010100001001000110001000000110001001100001011100110110100101100011 O"
#60000
0%
#65000
b111 v
b111 I"
b1001 .
b1001 0"
b1001 D"
b1000 0
b1000 1"
b1000 C"
b111 2
b111 2"
b111 B"
b10110 6
b10110 3"
b10110001110100001001000000000000 :
b10110001110100001001000000000000 7"
b10110001110100001001000000000000 ="
b10000000000000 >"
b1110 p
b1110 {
1x
b10000000000100 4
b10000000000000 5
b10000000000000 9"
b10000000000000 <"
b11111 L"
1%
#70000
0%
#75000
b11111 L"
1%
#76000
0&
#77000
b100000000100100000000000000000000000000000000000000000000000000 w
b100000000100100000000000000000000000000000000000000000000000000 J"
b100000000100100000000000000000000000000000000000000000000000000 <
b100000000100100000000000000000000000000000000000000000000000000 /"
b100000000010000000000000000000000000000000000000000000000000000 o
b100000000010000000000000000000000000000000000000000000000000000 z
0=
0>
b100000000000100000000000000000000000000000000000000000000000000 n
b100000000000100000000000000000000000000000000000000000000000000 y
b1110 p
b1110 {
1x
b100000000010000000000000000000000000000000000000000000000000000 /
b100000000010000000000000000000000000000000000000000000000000000 G"
b100000000000100000000000000000000000000000000000000000000000000 1
b100000000000100000000000000000000000000000000000000000000000000 F"
#80000
0%
#85000
b0 <
b0 /"
b0 v
b0 I"
b0 /
b0 G"
b0 .
b0 0"
b0 D"
b0 1
b0 F"
b0 0
b0 1"
b0 C"
b0 2
b0 2"
b0 B"
b0 6
b0 3"
b0 :
b0 7"
b0 ="
b10000000000100 >"
0>
b0 o
b0 z
1=
b0 n
b0 y
b10 p
b10 {
b0 w
b0 J"
1x
b10000000001000 4
b10000000000100 5
b10000000000100 9"
b10000000000100 <"
b0 3
b0 E"
1%
#86000
1&
b10111010100101101100000000000000 S"
b10111 )
b1010 *
b1011 +
b1100 ,
b10000001000000 (
b100000000100100000000000000000000000000000000000000000000000000 M"
b100000000100100000000000000000000000000000000000000000000000000 N"
b1001101010101010100110001000110001000000110001001100001011100110110100101100011 O"
#90000
0%
#95000
b111111111111000000000000000000000000000000000000000000000000000 w
b111111111111000000000000000000000000000000000000000000000000000 J"
b111111111111000000000000000000000000000000000000000000000000000 <
b111111111111000000000000000000000000000000000000000000000000000 /"
b1010 v
b1010 I"
b1100 .
b1100 0"
b1100 D"
b1011 0
b1011 1"
b1011 C"
b1010 2
b1010 2"
b1010 B"
b10111 6
b10111 3"
b10111010100101101100000000000000 :
b10111010100101101100000000000000 7"
b10111010100101101100000000000000 ="
b10000000000000 >"
b1111 p
b1111 {
1x
b10000000000100 4
b10000000000000 5
b10000000000000 9"
b10000000000000 <"
b11111 L"
1%
#100000
0%
#105000
b11111 L"
1%
#106000
0&
#107000
b100000000001000000000000000000000000000000000000000000000000000 <
b100000000001000000000000000000000000000000000000000000000000000 /"
b100000000000100000000000000000000000000000000000000000000000000 o
b100000000000100000000000000000000000000000000000000000000000000 z
0=
1>
b100000000011110000000000000000000000000000000000000000000000000 n
b100000000011110000000000000000000000000000000000000000000000000 y
b1111 p
b1111 {
b100000000001000000000000000000000000000000000000000000000000000 w
b100000000001000000000000000000000000000000000000000000000000000 J"
1x
b100000000000100000000000000000000000000000000000000000000000000 /
b100000000000100000000000000000000000000000000000000000000000000 G"
b100000000011110000000000000000000000000000000000000000000000000 1
b100000000011110000000000000000000000000000000000000000000000000 F"
#110000
0%
#115000
b0 <
b0 /"
b0 v
b0 I"
b0 /
b0 G"
b0 .
b0 0"
b0 D"
b0 1
b0 F"
b0 0
b0 1"
b0 C"
b0 2
b0 2"
b0 B"
b0 6
b0 3"
b0 :
b0 7"
b0 ="
b10000000000100 >"
b0 o
b0 z
1=
0>
b0 n
b0 y
b10 p
b10 {
b0 w
b0 J"
1x
b0 3
b0 E"
b10000000001000 4
b10000000000100 5
b10000000000100 9"
b10000000000100 <"
1%
#116000
1&
b10100011010111001111000000000000 S"
b10100 )
b1101 *
b1110 +
b1111 ,
b10000001000000 (
b100000000001000000000000000000000000000000000000000000000000000 M"
b100000000001000000000000000000000000000000000000000000000000000 N"
b1000100010010010101011001000110001000000110001001100001011100110110100101100011 O"
#120000
0%
#125000
b1101 v
b1101 I"
b1111 .
b1111 0"
b1111 D"
b1110 0
b1110 1"
b1110 C"
b1101 2
b1101 2"
b1101 B"
b10100 6
b10100 3"
b10100011010111001111000000000000 :
b10100011010111001111000000000000 7"
b10100011010111001111000000000000 ="
b10000000000000 >"
b1100 p
b1100 {
1x
b10000000000100 4
b10000000000000 5
b10000000000000 9"
b10000000000000 <"
b11111 L"
1%
#130000
0%
#135000
b11111 L"
1%
#136000
0&
#137000
b111111111110000000000000000000000000000000000000000000000000000 w
b111111111110000000000000000000000000000000000000000000000000000 J"
b111111111110000000000000000000000000000000000000000000000000000 <
b111111111110000000000000000000000000000000000000000000000000000 /"
b11111111110000000000000000000000000000000000000000000000000000 o
b11111111110000000000000000000000000000000000000000000000000000 z
0=
1>
b111111111110000000000000000000000000000000000000000000000000000 n
b111111111110000000000000000000000000000000000000000000000000000 y
b1100 p
b1100 {
1x
b11111111110000000000000000000000000000000000000000000000000000 /
b11111111110000000000000000000000000000000000000000000000000000 G"
b111111111110000000000000000000000000000000000000000000000000000 1
b111111111110000000000000000000000000000000000000000000000000000 F"
#140000
0%
#145000
b0 <
b0 /"
b0 v
b0 I"
b0 /
b0 G"
b0 .
b0 0"
b0 D"
b0 1
b0 F"
b0 0
b0 1"
b0 C"
b0 2
b0 2"
b0 B"
b0 6
b0 3"
b0 :
b0 7"
b0 ="
b10000000000100 >"
b0 o
b0 z
1=
0>
b0 n
b0 y
b10 p
b10 {
b0 w
b0 J"
1x
b10000000001000 4
b10000000000100 5
b10000000000100 9"
b10000000000100 <"
b0 3
b0 E"
1%
#146000
1&
b10111100001000110010000000000000 S"
b10111 )
b10000 *
b10001 +
b10010 ,
b10000001000000 (
b111111111110000000000000000000000000000000000000000000000000000 M"
b111111111110000000000000000000000000000000000000000000000000000 N"
b100000101000100010001000100011000100000011010010110111001100110 O"
#150000
0%
#155000
b111111111111000000000000000000000000000000000000000000000000000 w
b111111111111000000000000000000000000000000000000000000000000000 J"
b111111111111000000000000000000000000000000000000000000000000000 <
b111111111111000000000000000000000000000000000000000000000000000 /"
b10000 v
b10000 I"
b10010 .
b10010 0"
b10010 D"
b10001 0
b10001 1"
b10001 C"
b10000 2
b10000 2"
b10000 B"
b10111 6
b10111 3"
b10111100001000110010000000000000 :
b10111100001000110010000000000000 7"
b10111100001000110010000000000000 ="
b10000000000000 >"
b1111 p
b1111 {
1x
b10000000000100 4
b10000000000000 5
b10000000000000 9"
b10000000000000 <"
b11111 L"
1%
#160000
0%
#165000
b11111 L"
1%
#166000
0&
#167000
b0 <
b0 /"
b100000000010100000000000000000000000000000000000000000000000000 o
b100000000010100000000000000000000000000000000000000000000000000 z
b1111 p
b1111 {
b0 w
b0 J"
1x
b100000000010100000000000000000000000000000000000000000000000000 /
b100000000010100000000000000000000000000000000000000000000000000 G"
#170000
0%
#175000
b0 v
b0 I"
b0 /
b0 G"
b0 .
b0 0"
b0 D"
b0 0
b0 1"
b0 C"
b0 2
b0 2"
b0 B"
b0 6
b0 3"
b0 :
b0 7"
b0 ="
b10000000000100 >"
b0 o
b0 z
b10 p
b10 {
1x
b10000000001000 4
b10000000000100 5
b10000000000100 9"
b10000000000100 <"
1%
#176000
1&
b10111100111010010101000000000000 S"
b10011 *
b10100 +
b10101 ,
b10000001000000 (
b0 M"
b0 N"
b10001000100100101010110010001100010000001111010011001010111001001101111 O"
#180000
0%
#185000
b111111111111000000000000000000000000000000000000000000000000000 w
b111111111111000000000000000000000000000000000000000000000000000 J"
b111111111111000000000000000000000000000000000000000000000000000 <
b111111111111000000000000000000000000000000000000000000000000000 /"
b10011 v
b10011 I"
b10101 .
b10101 0"
b10101 D"
b10100 0
b10100 1"
b10100 C"
b10011 2
b10011 2"
b10011 B"
b10111 6
b10111 3"
b10111100111010010101000000000000 :
b10111100111010010101000000000000 7"
b10111100111010010101000000000000 ="
b10000000000000 >"
b1111 p
b1111 {
1x
b10000000000100 4
b10000000000000 5
b10000000000000 9"
b10000000000000 <"
b11111 L"
1%
#190000
0%
#195000
b11111 L"
1%
#196000
0&
#197000
b111111111110000000000000000000000000000000000000000000000000000 <
b111111111110000000000000000000000000000000000000000000000000000 /"
0=
1>
b11111111110000000000000000000000000000000000000000000000000000 n
b11111111110000000000000000000000000000000000000000000000000000 y
b1111 p
b1111 {
b111111111110000000000000000000000000000000000000000000000000000 w
b111111111110000000000000000000000000000000000000000000000000000 J"
1x
b11111111110000000000000000000000000000000000000000000000000000 1
b11111111110000000000000000000000000000000000000000000000000000 F"
#200000
0%
#205000
b0 <
b0 /"
b0 v
b0 I"
b0 .
b0 0"
b0 D"
b0 1
b0 F"
b0 0
b0 1"
b0 C"
b0 2
b0 2"
b0 B"
b0 6
b0 3"
b0 :
b0 7"
b0 ="
b10000000000100 >"
1=
0>
b0 n
b0 y
b10 p
b10 {
b0 w
b0 J"
1x
b10000000001000 4
b10000000000100 5
b10000000000100 9"
b10000000000100 <"
b0 3
b0 E"
1%
#206000
1&
b10100101101011111000000000000000 S"
b10100 )
b10110 *
b10111 +
b11000 ,
b10000001000000 (
b111111111110000000000000000000000000000000000000000000000000000 M"
b111111111110000000000000000000000000000000000000000000000000000 N"
b10001000100100101010110010001100010000001100010011110010010000001111010011001010111001001101111 O"
#210000
0%
#215000
b10110 v
b10110 I"
b11000 .
b11000 0"
b11000 D"
b10111 0
b10111 1"
b10111 C"
b10110 2
b10110 2"
b10110 B"
b10100 6
b10100 3"
b10100101101011111000000000000000 :
b10100101101011111000000000000000 7"
b10100101101011111000000000000000 ="
b10000000000000 >"
b1100 p
b1100 {
1x
b10000000000100 4
b10000000000000 5
b10000000000000 9"
b10000000000000 <"
b11111 L"
1%
#220000
0%
#225000
b11111 L"
1%
#226000
0&
#227000
b111111111111000000000000000000000000000000000000000000000000000 w
b111111111111000000000000000000000000000000000000000000000000000 J"
b111111111111000000000000000000000000000000000000000000000000000 <
b111111111111000000000000000000000000000000000000000000000000000 /"
b11111111110000000000000000000000000000000000000000000000000000 o
b11111111110000000000000000000000000000000000000000000000000000 z
0=
1>
b111111111111000000000000000000000000000000000000000000000000001 n
b111111111111000000000000000000000000000000000000000000000000001 y
b1100 p
b1100 {
1x
b11111111110000000000000000000000000000000000000000000000000000 /
b11111111110000000000000000000000000000000000000000000000000000 G"
b111111111111000000000000000000000000000000000000000000000000001 1
b111111111111000000000000000000000000000000000000000000000000001 F"
#230000
0%
#235000
b0 <
b0 /"
b0 v
b0 I"
b0 /
b0 G"
b0 .
b0 0"
b0 D"
b0 1
b0 F"
b0 0
b0 1"
b0 C"
b0 2
b0 2"
b0 B"
b0 6
b0 3"
b0 :
b0 7"
b0 ="
b10000000000100 >"
b0 o
b0 z
1=
0>
b0 n
b0 y
b10 p
b10 {
b0 w
b0 J"
1x
b0 3
b0 E"
b10000000001000 4
b10000000000100 5
b10000000000100 9"
b10000000000100 <"
1%
#236000
b111111111111000000000000000000000000000000000000000000000000000 P"
b100000101000100010001000100011000100000010011100110000101001110 Q"
